<?xml version="1.0" encoding="utf-8"?>
<!-- Generator: Adobe Illustrator 16.0.0, SVG Export Plug-In . SVG Version: 6.00 Build 0)  -->
<!DOCTYPE svg PUBLIC "-//W3C//DTD SVG 1.1//EN" "http://www.w3.org/Graphics/SVG/1.1/DTD/svg11.dtd">
<svg version="1.1" id="Layer_1" xmlns="http://www.w3.org/2000/svg" xmlns:xlink="http://www.w3.org/1999/xlink" x="0px" y="0px"
	 width="48px" height="48px" viewBox="0 0 48 48" enable-background="new 0 0 48 48" xml:space="preserve">
<circle fill="#2C2E33" cx="24" cy="24" r="23.778"/>
<g>
	<path fill="#FFFFFF" d="M20.84,15.615c-0.104,0.021-0.182,0.031-0.234,0.031c-0.303,0-0.545-0.12-0.727-0.359
		c-0.182-0.239-0.273-0.505-0.273-0.797c0-0.239,0.076-0.471,0.227-0.695c0.15-0.224,0.398-0.377,0.742-0.461
		c0.719-0.188,1.455-0.315,2.211-0.383c0.756-0.067,1.492-0.102,2.211-0.102c0.854,0,1.658,0.115,2.414,0.344
		c0.756,0.229,1.42,0.583,1.992,1.062c0.572,0.479,1.025,1.081,1.359,1.805c0.334,0.724,0.5,1.581,0.5,2.57
		c0,0.667-0.086,1.263-0.258,1.789c-0.172,0.526-0.406,1.016-0.703,1.469s-0.643,0.886-1.039,1.297
		c-0.396,0.412-0.812,0.826-1.25,1.242c-0.5,0.521-0.932,0.948-1.297,1.282c-0.365,0.333-0.664,0.63-0.898,0.891
		c-0.234,0.26-0.406,0.513-0.516,0.758c-0.109,0.244-0.17,0.544-0.18,0.898v0.234c0,0.114,0.002,0.275,0.008,0.484
		c0.006,0.208,0.008,0.479,0.008,0.812c0,0.364-0.125,0.641-0.375,0.828s-0.525,0.281-0.828,0.281c-0.365,0-0.633-0.076-0.805-0.227
		c-0.172-0.151-0.289-0.37-0.352-0.656c-0.062-0.287-0.088-0.641-0.078-1.062s0.016-0.898,0.016-1.43
		c0.021-0.521,0.178-1.008,0.469-1.461s0.65-0.896,1.078-1.329s0.885-0.862,1.375-1.289c0.49-0.427,0.945-0.877,1.367-1.352
		c0.422-0.474,0.773-0.977,1.055-1.508s0.422-1.12,0.422-1.766c0-0.698-0.117-1.278-0.352-1.742
		c-0.234-0.463-0.541-0.833-0.922-1.109c-0.381-0.276-0.818-0.471-1.312-0.586c-0.494-0.114-1.002-0.172-1.523-0.172
		c-0.146,0-0.354,0.008-0.625,0.023s-0.57,0.039-0.898,0.07s-0.67,0.073-1.023,0.125C21.471,15.479,21.143,15.542,20.84,15.615z
		 M22.324,35.068c0-0.188,0.037-0.373,0.109-0.555c0.072-0.183,0.18-0.344,0.32-0.484s0.314-0.253,0.523-0.336
		c0.209-0.084,0.447-0.125,0.719-0.125s0.51,0.041,0.719,0.125c0.209,0.083,0.385,0.195,0.531,0.336s0.256,0.302,0.328,0.484
		c0.072,0.182,0.109,0.367,0.109,0.555c0,0.197-0.037,0.391-0.109,0.578s-0.182,0.352-0.328,0.492s-0.322,0.255-0.531,0.344
		c-0.209,0.088-0.447,0.133-0.719,0.133s-0.51-0.045-0.719-0.133c-0.209-0.089-0.383-0.203-0.523-0.344s-0.248-0.305-0.32-0.492
		S22.324,35.266,22.324,35.068z"/>
</g>
</svg>
