<?xml version="1.0" encoding="utf-8"?>
<!-- Generator: Adobe Illustrator 16.0.0, SVG Export Plug-In . SVG Version: 6.00 Build 0)  -->
<!DOCTYPE svg PUBLIC "-//W3C//DTD SVG 1.1//EN" "http://www.w3.org/Graphics/SVG/1.1/DTD/svg11.dtd">
<svg version="1.1" id="Layer_1" xmlns="http://www.w3.org/2000/svg" xmlns:xlink="http://www.w3.org/1999/xlink" x="0px" y="0px"
	 width="30px" height="30px" viewBox="0 0 30 30" enable-background="new 0 0 30 30" xml:space="preserve">
<path fill="#EF8114" d="M12.509,18.537l0.41,5.272V27c0,1.104,0.896,2,2.001,2c1.104,0,2-0.896,2-2v-2.914l0.57-5.582L12.509,18.537
	z"/>
<path fill="#41C920" d="M12.543,18.691h8.46c2.209,0,4-1.791,4-4c0-1.747-1.128-3.216-2.688-3.761
	c0.435-0.64,0.688-1.411,0.688-2.242c0-2.209-1.791-4-4-4c-0.047,0-0.09,0.012-0.138,0.014c-0.441-1.73-1.997-3.015-3.863-3.015
	c-1.868,0-3.423,1.286-3.864,3.016c-0.048-0.001-0.093-0.014-0.142-0.014c-2.208,0-3.999,1.791-3.999,4
	c0,0.831,0.254,1.602,0.688,2.242c-1.561,0.544-2.688,2.014-2.688,3.76c0,2.209,1.791,4,3.999,4c0.002,0,0.004-0.002,0.006-0.002
	v0.002H12.543"/>
<path d="M18.09,17.004"/>
<path d="M13,17.004"/>
<path fill="#FF7900" d="M18.09,17.004"/>
<path fill="#FF7900" d="M13,17.004"/>
</svg>
