<?xml version="1.0" encoding="UTF-8"?>
<!-- Generator: Adobe Illustrator 16.0.0, SVG Export Plug-In . SVG Version: 6.00 Build 0)  -->
<!DOCTYPE svg PUBLIC "-//W3C//DTD SVG 1.1//EN" "http://www.w3.org/Graphics/SVG/1.1/DTD/svg11.dtd">
<svg version="1.1" id="Layer_1" xmlns="http://www.w3.org/2000/svg" xmlns:xlink="http://www.w3.org/1999/xlink" x="0px" y="0px" width="30px" height="30px" viewBox="0 0 30 30" enable-background="new 0 0 30 30" xml:space="preserve">
<path d="M18.26,15.629h6.406L18.26,8.964h4.656l-7.332-7.63l-7.668,7.63h4.949l-6.699,6.665h6.699l-6.699,6.663h7v4.429  c0,1.535,1.102,2.779,2.459,2.779s2.459-1.244,2.459-2.779v-4.429h6.582L18.26,15.629z"/>
</svg>